<?xml version="1.0" encoding="iso-8859-1"?>
<!-- Generator: Adobe Illustrator 19.0.0, SVG Export Plug-In . SVG Version: 6.00 Build 0)  -->
<svg version="1.1" id="Capa_1" xmlns="http://www.w3.org/2000/svg" xmlns:xlink="http://www.w3.org/1999/xlink" x="0px" y="0px"
	 viewBox="0 0 512.003 512.003" style="enable-background:new 0 0 512.003 512.003;" xml:space="preserve">
<g>
	<g>
		<path d="M444.582,309.596h-1.206c14.685-21.69,22.685-47.568,22.685-73.909c0-16.982-3.186-33.512-9.469-49.132
			c-6.712-16.682-16.622-31.599-29.453-44.338c-2.938-2.918-7.688-2.903-10.606,0.038c-2.919,2.939-2.901,7.688,0.038,10.606
			c9.272,9.205,16.82,19.689,22.513,31.251c-8.877,4.011-15.073,12.945-15.073,23.304v61.489c0,5.594-2.171,10.838-6.13,14.78
			c-3.938,3.946-9.184,6.12-14.77,6.12c-4.724,0-9.172-1.538-12.894-4.471c-5.089-3.969-8.007-9.957-8.007-16.429v-62.293
			c0-14.084-11.463-25.542-25.552-25.542h-0.646c-10.406,0-19.372,6.253-23.352,15.194c-9.709-12.841-21.463-24.124-34.952-33.408
			c-11.319-7.79-23.519-13.915-36.303-18.315c20.641-16.567,46.142-25.577,72.931-25.577c19.66,0,39.112,4.996,56.257,14.448
			c3.629,2,8.189,0.68,10.189-2.947c1.999-3.627,0.68-8.189-2.947-10.189c-19.356-10.672-41.313-16.313-63.499-16.313
			c-11.502,0-22.791,1.48-33.65,4.334l33.962-62.755c3.956-7.308,1.238-16.514-6.058-20.521
			C283.75,0.392,231.666-6.332,181.937,6.082C132.206,18.5,89.394,48.919,61.39,91.739c-4.554,6.965-2.626,16.367,4.299,20.958
			l68.513,45.424c-4.341,2.64-8.572,5.512-12.679,8.612c-3.306,2.496-3.963,7.199-1.468,10.505s7.199,3.964,10.505,1.468
			c23.705-17.894,51.972-27.351,81.742-27.351c27.635,0,54.228,8.25,76.904,23.856c19.661,13.532,35.247,31.753,45.499,53.05
			c-10.415,4.192-17.791,14.397-17.791,26.297v55.038h-50.532V253.63c0-15.614-12.708-28.316-28.327-28.316h-0.744
			c-15.621,0-28.328,12.703-28.328,28.316v55.966h-26.644v-75.098c0-15.614-12.708-28.315-28.327-28.315h-7.585
			c-15.62,0-28.327,12.703-28.327,28.315v5.122c0,7.349-5.974,13.328-13.316,13.328H80.841
			c4.914-18.872,13.926-36.632,26.364-51.808c2.625-3.203,2.157-7.929-1.046-10.555c-3.206-2.626-7.929-2.159-10.556,1.046
			c-15.927,19.431-26.805,42.682-31.471,67.255c-0.007,0.032-0.014,0.065-0.02,0.098c-0.005,0.026-0.011,0.052-0.016,0.078
			c-1.735,9.238-2.615,18.697-2.615,28.112c0,7.511,0.562,15.026,1.662,22.42h-0.531c-5.151,0-9.93,2.324-13.11,6.376
			c-3.18,4.052-4.302,9.245-3.078,14.248l30.092,123.063c0.047,0.243,0.106,0.485,0.177,0.724l11.075,45.291
			c1.829,7.481,8.485,12.707,16.188,12.707h68.497c4.143,0,7.5-3.358,7.5-7.5s-3.357-7.5-7.5-7.5h-68.497
			c-0.77,0-1.436-0.522-1.618-1.27L92.176,454.17l129.575-129.575h222.831c0.669,0,1.081,0.346,1.31,0.637
			c0.229,0.291,0.467,0.773,0.308,1.424l-4.709,19.259L290.404,497.002h-83.772c-4.143,0-7.5,3.358-7.5,7.5s3.357,7.5,7.5,7.5
			h196.607c7.701,0,14.357-5.225,16.188-12.707l41.343-169.076c1.224-5.003,0.102-10.196-3.078-14.249
			C454.511,311.919,449.733,309.596,444.582,309.596z M279.549,115.847c-0.396,0.181-0.79,0.364-1.183,0.548l-25.397-15.249
			l18.133-30.2l24.716,14.84L279.549,115.847z M321.372,38.17c0.092,0.052,0.13,0.154,0.087,0.234L302.962,72.58l-24.141-14.495
			l18.594-30.968C305.596,30.216,313.601,33.902,321.372,38.17z M245.764,15.575c12.536,0.976,24.946,3.222,37.062,6.704
			l-16.864,28.086l-30.2-18.133L245.764,15.575z M258.241,63.225l-18.133,30.2l-30.2-18.133l18.133-30.2L258.241,63.225z
			 M228.597,15.028l-5.694,9.484l-13.658-8.2C215.691,15.551,222.149,15.119,228.597,15.028z M183.876,21.081
			c0.565-0.146,1.127-0.302,1.695-0.444c0.415-0.104,0.831-0.195,1.246-0.296l28.365,17.031l-18.133,30.2l-30.2-18.133
			L183.876,21.081z M189.328,80.432l-18.133,30.2l-30.199-18.133l18.132-30.2L189.328,80.432z M162.14,28.144l-8.15,13.575
			l-9.383-5.633C150.292,33.146,156.146,30.501,162.14,28.144z M129.747,44.658l16.522,9.92l-18.133,30.2l-27.881-16.741
			C109.289,59.259,119.164,51.428,129.747,44.658z M73.978,100.196c-0.076-0.05-0.091-0.159-0.034-0.247
			c4.791-7.326,10.054-14.257,15.735-20.766l30.737,18.455l-14.321,23.851L73.978,100.196z M147.997,149.271l-29.388-19.484
			l14.666-24.426l30.2,18.132L147.997,149.271z M169.576,142.466l6.758-11.254l11.761,7.062
			C181.817,139.28,175.636,140.683,169.576,142.466z M214.023,136.387c-0.19-0.14-0.386-0.274-0.592-0.397l-29.376-17.638
			l18.133-30.2l30.2,18.133l-18.078,30.108C214.215,136.391,214.119,136.388,214.023,136.387z M231.118,137.539l14.13-23.533
			l17.962,10.784c-6.753,4.347-13.148,9.34-19.105,14.947C239.82,138.817,235.489,138.082,231.118,137.539z M77.836,267.946h26.948
			c15.613,0,28.315-12.708,28.315-28.327v-5.122c0-7.343,5.979-13.316,13.328-13.316h7.585c7.35,0,13.328,5.974,13.328,13.316
			v75.098H78.33c-1.222-7.374-1.847-14.897-1.847-22.42C76.483,280.752,76.939,274.307,77.836,267.946z M74.361,381.313
			l-13.365-54.657c-0.159-0.65,0.079-1.133,0.307-1.423c0.229-0.291,0.641-0.637,1.311-0.637h68.463L74.361,381.313z
			 M88.008,437.124l-9.48-38.767l73.762-73.762h48.247L88.008,437.124z M251.384,309.596h-27.4v-55.966
			c0-7.343,5.979-13.317,13.329-13.317h0.744c7.35,0,13.328,5.974,13.328,13.317V309.596z M346.276,309.596h-14.361v-55.038h0
			c0-5.671,3.56-10.513,8.555-12.44c5.077,14.432,7.653,29.558,7.653,45.057C348.123,294.698,347.498,302.221,346.276,309.596z
			 M424.676,309.596h-63.216c1.101-7.397,1.663-14.911,1.663-22.42c0-19.442-3.647-38.368-10.842-56.255
			c-2.021-5.024-4.308-9.91-6.832-14.65c0.003-0.088,0.013-0.174,0.013-0.262v-9.397c0-5.813,4.734-10.543,10.553-10.543h0.646
			c5.818,0,10.553,4.729,10.553,10.543v62.293c0,11.126,5.022,21.424,13.751,28.232c6.365,5.016,14.023,7.667,22.148,7.667
			c9.598,0,18.613-3.737,25.37-10.507c6.789-6.763,10.528-15.78,10.528-25.392v-61.489c0-4.122,2.377-7.691,5.826-9.43
			c4.128,12.093,6.224,24.744,6.224,37.7c0,26.731-8.788,51.881-25.413,72.728C425.33,308.814,424.999,309.202,424.676,309.596z
			 M404.857,495.731c-0.183,0.749-0.849,1.271-1.618,1.271h-22.149l31.049-31.049L404.857,495.731z M419.005,437.873l-59.129,59.129
			h-48.259l123.007-123.008L419.005,437.873z"/>
	</g>
</g>
<g>
</g>
<g>
</g>
<g>
</g>
<g>
</g>
<g>
</g>
<g>
</g>
<g>
</g>
<g>
</g>
<g>
</g>
<g>
</g>
<g>
</g>
<g>
</g>
<g>
</g>
<g>
</g>
<g>
</g>
</svg>
