<?xml version="1.0" standalone="no"?>
<!DOCTYPE svg PUBLIC "-//W3C//DTD SVG 20010904//EN"
 "http://www.w3.org/TR/2001/REC-SVG-20010904/DTD/svg10.dtd">
<svg version="1.0" xmlns="http://www.w3.org/2000/svg"
 width="700.000000pt" height="700.000000pt" viewBox="0 0 700.000000 700.000000"
 preserveAspectRatio="xMidYMid meet">
<metadata>
Created by potrace 1.11, written by Peter Selinger 2001-2013
</metadata>
<g transform="translate(0.000000,700.000000) scale(0.100000,-0.100000)"
fill="#000000" stroke="none">
<path d="M3178 6995 c-2 -2 -22 -5 -45 -8 -141 -20 -297 -87 -415 -179 -64
-50 -90 -79 -170 -181 -75 -98 -126 -132 -221 -147 -199 -33 -337 -75 -478
-145 -133 -67 -209 -123 -316 -232 -123 -124 -196 -253 -238 -418 -19 -73 -23
-111 -20 -200 2 -60 6 -121 9 -135 3 -14 8 -34 10 -45 2 -11 13 -47 25 -80 12
-32 21 -64 21 -71 0 -6 -19 -16 -42 -23 -24 -7 -56 -19 -73 -26 -137 -60 -203
-67 -340 -35 -256 60 -506 -11 -681 -192 -140 -144 -206 -315 -198 -513 5
-135 20 -197 79 -315 40 -78 63 -157 60 -200 -2 -14 -6 -65 -10 -115 -12 -154
24 -299 104 -421 182 -280 517 -374 847 -240 60 25 153 39 172 27 7 -4 11 -93
13 -242 1 -153 6 -259 15 -302 18 -87 64 -212 98 -265 14 -23 26 -45 26 -48 0
-16 87 -123 144 -177 79 -76 176 -140 278 -183 46 -20 92 -39 103 -44 11 -4
144 -57 295 -118 l275 -109 -1 -79 c-1 -73 -9 -235 -19 -379 -2 -33 -7 -109
-10 -170 -3 -60 -8 -141 -10 -180 -2 -38 -7 -108 -10 -155 -21 -338 -22 -405
-12 -453 9 -43 62 -119 101 -146 78 -52 52 -50 921 -48 446 2 818 5 828 8 9 3
23 11 29 17 7 7 17 12 23 12 14 0 67 49 88 81 26 39 43 109 41 164 -2 54 -11
236 -19 350 -4 66 -8 140 -20 350 -5 90 -12 206 -20 345 -3 41 -7 113 -10 160
-3 47 -7 117 -9 155 -3 39 -8 120 -11 181 l-6 111 48 18 c26 9 62 23 78 31 17
7 174 69 350 139 385 151 397 156 484 214 188 125 310 297 368 518 23 92 25
115 28 378 2 154 3 283 4 287 1 4 13 3 27 -2 70 -27 191 -44 304 -43 397 3
738 263 804 613 14 76 13 140 -5 242 -20 116 -14 153 40 269 60 127 81 216 86
349 7 231 -64 419 -219 575 -104 105 -214 169 -361 212 -88 25 -364 23 -407
-3 -13 -8 -122 -8 -148 0 -14 5 -70 30 -125 57 -117 58 -201 80 -305 80 -115
-1 -183 -17 -282 -66 -69 -35 -78 -34 -78 13 0 29 -84 204 -130 272 -156 231
-393 377 -690 425 -134 22 -180 44 -238 114 -71 85 -161 173 -216 210 -96 66
-248 128 -361 147 -41 6 -251 14 -257 9z m1615 -3398 c29 -13 70 -28 92 -32
22 -5 47 -10 55 -12 27 -6 177 -5 198 1 11 4 29 8 39 10 10 2 29 7 43 11 l26
6 -1 -283 c0 -267 -2 -287 -23 -354 -26 -78 -77 -146 -145 -193 -34 -22 -179
-83 -467 -195 -8 -3 -69 -27 -135 -54 -66 -27 -121 -48 -122 -47 -4 3 -11 88
-18 225 -4 69 -8 154 -11 190 -2 36 -6 108 -9 160 -3 52 -7 131 -10 175 l-6
81 78 44 c106 59 204 134 288 219 38 39 71 71 72 71 1 0 26 -11 56 -23z
m-2197 -549 c-3 -46 -8 -128 -11 -183 -5 -93 -9 -163 -20 -340 -2 -38 -7 -119
-11 -180 -4 -60 -7 -131 -8 -157 -1 -26 -4 -50 -7 -53 -6 -5 -364 133 -401
155 -10 5 -23 10 -30 10 -6 0 -48 18 -92 39 -128 62 -207 156 -240 283 -18 71
-21 418 -3 418 44 2 160 25 307 63 59 15 104 15 190 1 100 -16 258 -4 328 25
2 0 1 -36 -2 -81z"/>
</g>
</svg>
